List BEDs — bb_list_beds • bedbaser
…
offset
integer(1) (default 0) page token of records

    Value

    tibble(1) of BED records

    Examples

bedbase <- BEDbase()
#> 20331 BED files available.
bb_list_beds(bedbase)
#> # A tibble: 1,000 × 26
#>    name         genome_alias genome_digest bed_type bed_format id    description
#>    <chr>        <chr>        <chr>         <chr>    <chr>      <chr> <chr>      
#>  1 encode_7040  hg38         2230c535660f… bed6+4   narrowpeak 0006… "CUX1 TF C…
#>  2 encode_12401 hg38         2230c535660f… bed6+4   narrowpeak 000a… "ZBTB2 TF …
#>  3 encode_12948 hg38         2230c535660f… bed6+3   broadpeak  0011… "DNase-seq…
#>  4 tissue,infi… hg38         2230c535660f… bed3+0   bed        0014… ""         
#>  5 encode_10146 hg38         2230c535660f… bed6+4   narrowpeak 0019… "H3K9ac Hi…
#>  6 hg38.Kundaj… hg38         2230c535660f… bed3+2   bed        0019… "Defined a…
#>  7 encode_4782  hg38         2230c535660f… bed6+4   narrowpeak 001d… "FASTKD2 e…
#>  8 encode_14119 hg38         2230c535660f… bed6+3   broadpeak  001f… "DNase-seq…
#>  9 encode_10920 hg38         2230c535660f… bed6+4   narrowpeak 0020… "ZNF621 TF…
#> 10 encode_16747 hg38         2230c535660f… bed6+4   narrowpeak 002b… "POLR2A TF…
#> # ℹ 990 more rows
#> # ℹ 19 more variables: submission_date <chr>, last_update_date <chr>,
#> #   is_universe <chr>, license_id <chr>, annotation.organism <chr>,
#> #   annotation.species_id <chr>, annotation.genotype <chr>,
#> #   annotation.phenotype <chr>, annotation.description <chr>,
#> #   annotation.cell_type <chr>, annotation.cell_line <chr>,
#> #   annotation.tissue <chr>, annotation.library_source <chr>, …
…
